%YAML 1.1
%TAG !u! tag:unity3d.com,2011:
--- !u!114 &11400000
MonoBehaviour:
  m_ObjectHideFlags: 0
  m_PrefabParentObject: {fileID: 0}
  m_PrefabInternal: {fileID: 0}
  m_GameObject: {fileID: 0}
  m_Enabled: 1
  m_EditorHideFlags: 0
  m_Script: {fileID: 11500000, guid: 8d7233014d638f444931bbf8027d838b, type: 3}
  m_Name: Versions
  m_EditorClassIdentifier: 
  versions:
    array:
    - version: 0.25
      title: Slovenian Games Conference
      date: 30.09.2017
      changelog:
        array:
        - note: Fixed a bug
        - note: Added 14 more stuff and 17 things
        - note: Added tons of secret bugs to discover and report
        _hashCode: -221507072
    - version: 0.26
      title: Development Version
      date: 02.10.2017
      changelog:
        array:
        - note: Fixed bugs that would make game stuck on loading screen
        - note: Brought back the feedback button
        _hashCode: -925347840
    - version: 0.27
      title: Development Version
      date: 02.10.2017
      changelog:
        array:
        - note: Doors will now stay open until you enter the next room
        - note: 
        _hashCode: -925347840
    _hashCode: -208061952
