%YAML 1.1
%TAG !u! tag:unity3d.com,2011:
--- !u!78 &1
TagManager:
  serializedVersion: 2
  tags:
  - Default UI Element
  layers:
  - Default
  - TransparentFX
  - Ignore Raycast
  - 
  - Water
  - UI
  - 
  - 
  - Player
  - EnemySolid
  - EnemyGhost
  - 
  - 
  - 
  - Collides With Player
  - Collides With EnemySolid
  - Collides With EnemyGhost
  - Collides With AllEnemies
  - Collides With All
  - 
  - 
  - 
  - Wall
  - Hole
  - Detonator
  - Trap
  - Obstacle
  - Pickup
  - 
  - 
  - 
  - 
  m_SortingLayers:
  - name: Default
    uniqueID: 0
    locked: 0
